<svg width="24" height="24" viewBox="0 0 24 24" fill="none" xmlns="http://www.w3.org/2000/svg">
<path fill-rule="evenodd" clip-rule="evenodd" d="M11.9756 2.85938C10.6011 2.85776 9.24384 3.16617 8.00497 3.76165C6.76595 4.35719 5.67723 5.22454 4.81984 6.29912C4.5615 6.6229 4.61455 7.0948 4.93833 7.35314C5.26211 7.61148 5.73401 7.55842 5.99235 7.23464C6.70904 6.33641 7.6191 5.6114 8.65479 5.11358C9.69048 4.61576 10.8251 4.35797 11.9742 4.35938H11.9752C16.2013 4.35938 19.6252 7.77801 19.6252 11.9902V12.2476L18.7997 11.458C18.5003 11.1717 18.0256 11.1823 17.7393 11.4816C17.453 11.7809 17.4635 12.2557 17.7628 12.542L19.9191 14.6045C20.2137 14.8863 20.6795 14.8811 20.9678 14.5928L23.0303 12.5303C23.3232 12.2374 23.3232 11.7626 23.0303 11.4697C22.7374 11.1768 22.2626 11.1768 21.9697 11.4697L21.1252 12.3142V11.9902C21.1252 6.94652 17.0268 2.85962 11.9756 2.85938ZM2.85 11.7107L2.03033 12.5303C1.73744 12.8232 1.26256 12.8232 0.96967 12.5303C0.676777 12.2374 0.676777 11.7626 0.96967 11.4697L3.03217 9.40718C3.32047 9.11888 3.78628 9.1137 4.08092 9.39553L6.23717 11.458C6.5365 11.7443 6.54704 12.2191 6.26073 12.5184C5.97442 12.8178 5.49966 12.8283 5.20033 12.542L4.35 11.7286V12.0075C4.35 16.2248 7.77199 19.6406 11.9999 19.6406C13.1463 19.6388 14.2779 19.3813 15.3122 18.8869C16.3468 18.3924 17.2581 17.6732 17.9795 16.7819C18.2401 16.4599 18.7124 16.4102 19.0344 16.6708C19.3563 16.9314 19.4061 17.4037 19.1455 17.7256C18.2836 18.7904 17.195 19.6495 15.9591 20.2403C14.7232 20.8311 13.371 21.1386 12.0011 21.1406L12 21.1406C6.94669 21.1406 2.85 17.0564 2.85 12.0075V11.7107Z" fill="black"/>
</svg>
