<svg width="24" height="24" viewBox="0 0 24 24" fill="none" xmlns="http://www.w3.org/2000/svg">
<path fill-rule="evenodd" clip-rule="evenodd" d="M21.3156 2.31799C21.4081 2.36025 21.4912 2.42085 21.5597 2.49611C21.8325 2.7947 21.8058 3.2597 21.5198 3.54517L20.9545 4.10767C20.9197 4.14268 20.8783 4.17046 20.8327 4.18941C20.787 4.20837 20.7381 4.21812 20.6887 4.21812C20.6394 4.21812 20.5905 4.20837 20.5448 4.18941C20.4992 4.17046 20.4578 4.14268 20.423 4.10767L19.8914 3.57705C19.8211 3.50673 19.7817 3.41138 19.7817 3.31197C19.7817 3.21255 19.8211 3.11721 19.8914 3.04689L20.4713 2.46986C20.5433 2.39799 20.6292 2.34147 20.7237 2.30372C20.8182 2.26596 20.9193 2.24777 21.0211 2.25022C21.1228 2.25267 21.223 2.27573 21.3156 2.31799ZM10.2572 12.6656L18.7191 4.21877C18.7981 4.1399 18.9053 4.09562 19.017 4.09562C19.1286 4.09562 19.2358 4.1399 19.3148 4.21877L19.7812 4.68752C19.8594 4.7665 19.9032 4.87312 19.9032 4.98423C19.9032 5.09534 19.8594 5.20197 19.7812 5.28095L11.3344 13.7438C11.2833 13.7951 11.2198 13.8324 11.1502 13.852L9.98531 14.2435C9.95368 14.2528 9.9201 14.2535 9.88813 14.2454C9.85615 14.2373 9.82695 14.2207 9.80362 14.1973C9.7803 14.174 9.7637 14.1448 9.75558 14.1128C9.74746 14.0808 9.74812 14.0473 9.7575 14.0156L10.1489 12.8499C10.1686 12.7802 10.2059 12.7167 10.2572 12.6656ZM4.0795 7.07952C4.29048 6.86854 4.57663 6.75001 4.875 6.75001H12.7256C13.1398 6.75001 13.4756 6.41423 13.4756 6.00001C13.4756 5.5858 13.1398 5.25001 12.7256 5.25001H4.875C4.17881 5.25001 3.51113 5.52657 3.01884 6.01886C2.52656 6.51114 2.25 7.17882 2.25 7.87501V19.125C2.25 19.8212 2.52656 20.4889 3.01884 20.9812C3.51113 21.4734 4.17881 21.75 4.875 21.75H16.125C16.4697 21.75 16.8111 21.6821 17.1295 21.5502C17.448 21.4183 17.7374 21.2249 17.9812 20.9812C18.2249 20.7374 18.4183 20.448 18.5502 20.1296C18.6821 19.8111 18.75 19.4697 18.75 19.125V10.5C18.75 10.0858 18.4142 9.75001 18 9.75001C17.5858 9.75001 17.25 10.0858 17.25 10.5V19.125C17.25 19.2727 17.2209 19.419 17.1644 19.5555C17.1078 19.692 17.025 19.816 16.9205 19.9205C16.816 20.025 16.692 20.1078 16.5555 20.1644C16.419 20.2209 16.2727 20.25 16.125 20.25H4.875C4.57663 20.25 4.29048 20.1315 4.0795 19.9205C3.86853 19.7095 3.75 19.4234 3.75 19.125V7.87501C3.75 7.57664 3.86853 7.2905 4.0795 7.07952Z" fill="black"/>
</svg>
