<svg width="24" height="24" viewBox="0 0 24 24" fill="none" xmlns="http://www.w3.org/2000/svg">
<path fill-rule="evenodd" clip-rule="evenodd" d="M6.82546 1.5C5.49547 1.5 4.37111 2.60649 4.51339 3.97107L4.51341 3.97129C4.83349 7.04649 6.06559 8.5854 7.21282 9.6687C7.40237 9.84769 7.59563 10.0198 7.77138 10.1763L7.77159 10.1765C7.84592 10.2427 7.91712 10.3061 7.98357 10.3661C8.21795 10.5775 8.4089 10.7595 8.56401 10.9393C8.85584 11.2777 8.99999 11.5822 8.99999 12C8.99999 12.4215 8.85585 12.7306 8.56643 13.0725C8.35126 13.3268 8.10804 13.5463 7.8079 13.8172L7.80789 13.8172C7.63527 13.973 7.44384 14.1458 7.22808 14.3519C6.09164 15.4377 4.86063 16.9728 4.51419 20.0216L4.51416 20.0219C4.35745 21.398 5.50289 22.5 6.82546 22.5H17.1745C18.4973 22.5 19.6424 21.3978 19.4863 20.022L19.4863 20.0218C19.1398 16.974 17.9096 15.4276 16.7735 14.3358C16.5858 14.1555 16.3947 13.9819 16.2208 13.8239L16.2207 13.8238C16.1464 13.7564 16.0753 13.6917 16.0088 13.6306C15.7763 13.4167 15.5865 13.2326 15.4323 13.0513C15.141 12.7089 15 12.4061 15 12C15 11.5977 15.1409 11.2995 15.4347 10.9605C15.5905 10.7809 15.782 10.5986 16.017 10.3861C16.0802 10.329 16.1475 10.2689 16.2175 10.2063L16.2176 10.2062C16.3967 10.0461 16.5941 9.86965 16.7888 9.68476C17.9354 8.59558 19.1665 7.04551 19.4865 3.97179C19.6314 2.60492 18.5026 1.5 17.1745 1.5H6.82546ZM6.00531 3.81559C5.96399 3.41964 6.29926 3 6.82546 3H17.1745C17.7024 3 18.0367 3.42075 17.9948 3.81401L17.9946 3.81581C17.7197 6.45754 16.7055 7.69498 15.7557 8.59719C15.5784 8.76557 15.4083 8.91763 15.2356 9.07194C15.1615 9.13821 15.0869 9.20489 15.011 9.27347C14.7686 9.49268 14.5201 9.72563 14.3013 9.97805C13.846 10.5032 13.5 11.1367 13.5 12C13.5 12.8596 13.8398 13.4943 14.2898 14.0233C14.5063 14.2778 14.7524 14.5129 14.9933 14.7345C15.0737 14.8085 15.1526 14.8802 15.231 14.9513L15.2311 14.9514C15.3976 15.1027 15.562 15.2519 15.7341 15.4174C16.6825 16.3287 17.6978 17.57 17.9959 20.1911C18.0394 20.575 17.708 21 17.1745 21H6.82546C6.29186 21 5.96081 20.575 6.00453 20.1915L6.00457 20.1912C6.30223 17.5712 7.31649 16.3421 8.26432 15.4364C8.40383 15.3031 8.55694 15.1644 8.71379 15.0222L8.71382 15.0222L8.71383 15.0222C9.06426 14.7046 9.43337 14.3701 9.71137 14.0416C10.1633 13.5077 10.5 12.8675 10.5 12C10.5 11.1288 10.1572 10.4899 9.69994 9.95969C9.48053 9.70527 9.23144 9.47163 8.98837 9.25234C8.90745 9.17934 8.8282 9.10877 8.74952 9.03872C8.5814 8.88903 8.41593 8.74171 8.24266 8.57809C7.29332 7.68166 6.28013 6.45639 6.00533 3.81581L6.00531 3.81559ZM7.92795 20.25H16.0922C16.822 20.25 16.9851 19.4489 16.5187 18.8845C16.0559 18.3246 15.3606 17.8652 14.6928 17.4239C13.6905 16.7616 12.75 16.1401 12.75 15.2812V10.5C12.75 9.98674 13.2981 9.54267 13.9723 8.99651C14.5265 8.54758 15.1658 8.02967 15.6558 7.34766C15.8353 7.09828 15.75 6.75 15.3558 6.75H8.66529C8.20311 6.75 8.18483 7.10109 8.3667 7.35C8.85878 8.02397 9.48628 8.53858 10.0302 8.98462C10.7043 9.5375 11.25 9.985 11.25 10.5V15.2812C11.25 16.2168 10.1966 16.9245 9.11748 17.6495C8.53235 18.0426 7.93967 18.4408 7.50326 18.8831C6.99045 19.4062 7.1967 20.25 7.92795 20.25Z" fill="black"/>
</svg>
