<svg width="24" height="24" viewBox="0 0 24 24" fill="none" xmlns="http://www.w3.org/2000/svg">
<path fill-rule="evenodd" clip-rule="evenodd" d="M10.3636 2.25C8.75888 2.25 7.1902 2.72585 5.85593 3.61739C4.52165 4.50892 3.48171 5.77609 2.86761 7.25866C2.25352 8.74122 2.09284 10.3726 2.4059 11.9465C2.71897 13.5204 3.49171 14.9661 4.62642 16.1008C5.76113 17.2355 7.20683 18.0082 8.78071 18.3213C10.3546 18.6344 11.986 18.4737 13.4685 17.8596C14.224 17.5467 14.9235 17.1232 15.5459 16.6065L20.4697 21.5303C20.7626 21.8232 21.2374 21.8232 21.5303 21.5303C21.8232 21.2374 21.8232 20.7626 21.5303 20.4697L16.6065 15.5459C16.7853 15.3306 16.9533 15.1054 17.1098 14.8713C18.0013 13.537 18.4772 11.9683 18.4772 10.3636V10.3635C18.4771 8.21174 17.6222 6.14811 16.1006 4.62655C14.5791 3.105 12.5154 2.25014 10.3636 2.25H10.3636ZM6.68928 4.86459C7.77687 4.13789 9.05552 3.75001 10.3635 3.75L16.9772 10.3636C16.9772 11.6717 16.5893 12.9503 15.8626 14.0379C15.1359 15.1255 14.103 15.9732 12.8945 16.4738C11.686 16.9743 10.3563 17.1053 9.07335 16.8501C7.79044 16.5949 6.61201 15.965 5.68708 15.0401C4.76215 14.1152 4.13227 12.9368 3.87708 11.6538C3.6219 10.3709 3.75287 9.04116 4.25343 7.83268C4.754 6.6242 5.60168 5.5913 6.68928 4.86459ZM15.04 5.68721C13.7997 4.44695 12.1176 3.75012 10.3636 3.75L16.9772 10.3636C16.9771 8.6096 16.2802 6.92748 15.04 5.68721Z" fill="black"/>
</svg>
