<svg height="100%" width="100%" xmlns="http://www.w3.org/2000/svg">
  <defs>
    <pattern id="bg" patternUnits="userSpaceOnUse" width="72" height="72">
      <g>
        <path d="m0 0h72v72h-72z" fill="#5b79ff" />
        <g stroke="#fff" stroke-dasharray="2 2" stroke-opacity=".15">
          <path d="m10 0v72" />
          <path d="m46 0v72" />
          <path d="m0 46h72" />
          <path d="m0 10h72" />
        </g>
      </g>
    </pattern>
  </defs>
  <rect width="100%" height="100%" fill="url(#bg)" />
</svg>
